C:\Users\370012484\Documents\NetBeansProjects\bitBucketRepos\alert_repo\src\main\java\com\aws\lambda\checkDeviceAndGetWithObser.java
C:\Users\370012484\Documents\NetBeansProjects\bitBucketRepos\alert_repo\src\main\java\com\aws\lambda\trackParamAlert.java
C:\Users\370012484\Documents\NetBeansProjects\bitBucketRepos\alert_repo\src\main\java\com\aws\lambda\mongoListsReturn.java
C:\Users\370012484\Documents\NetBeansProjects\bitBucketRepos\alert_repo\src\main\java\com\aws\lambda\smbParamAlert1.java
C:\Users\370012484\Documents\NetBeansProjects\bitBucketRepos\alert_repo\src\main\java\com\aws\lambda\mongoDataGet.java
C:\Users\370012484\Documents\NetBeansProjects\bitBucketRepos\alert_repo\src\main\java\com\aws\lambda\checkDeviceAndGet.java
C:\Users\370012484\Documents\NetBeansProjects\bitBucketRepos\alert_repo\src\main\java\com\aws\lambda\invParamAlert.java
C:\Users\370012484\Documents\NetBeansProjects\bitBucketRepos\alert_repo\src\main\java\com\aws\lambda\checkParamAndGet.java
C:\Users\370012484\Documents\NetBeansProjects\bitBucketRepos\alert_repo\src\main\java\com\aws\lambda\Alerts.java
C:\Users\370012484\Documents\NetBeansProjects\bitBucketRepos\alert_repo\src\main\java\com\aws\lambda\dataProcess.java
C:\Users\370012484\Documents\NetBeansProjects\bitBucketRepos\alert_repo\src\main\java\com\aws\lambda\powerActExpDev.java
C:\Users\370012484\Documents\NetBeansProjects\bitBucketRepos\alert_repo\src\main\java\com\aws\lambda\nonCommunicationAlert.java
C:\Users\370012484\Documents\NetBeansProjects\bitBucketRepos\alert_repo\src\main\java\com\aws\lambda\smbParamAlert.java
C:\Users\370012484\Documents\NetBeansProjects\bitBucketRepos\alert_repo\src\main\java\com\aws\lambda\vcbParamAlert.java
C:\Users\370012484\Documents\NetBeansProjects\bitBucketRepos\alert_repo\src\main\java\com\aws\lambda\sqlUpdateAndEntry.java
C:\Users\370012484\Documents\NetBeansProjects\bitBucketRepos\alert_repo\src\main\java\com\aws\lambda\getData.java
C:\Users\370012484\Documents\NetBeansProjects\bitBucketRepos\alert_repo\src\main\java\com\aws\lambda\annParamAlert.java
C:\Users\370012484\Documents\NetBeansProjects\bitBucketRepos\alert_repo\src\main\java\com\aws\lambda\connection.java
C:\Users\370012484\Documents\NetBeansProjects\bitBucketRepos\alert_repo\src\main\java\com\aws\lambda\wmsParamAlert.java
